{
  "endpointAddress" : "https://apismod.plymouthrock.com/edge/public/test/universalraterservice/processAuto",
  "method" : "POST",
  "headers" : { },
  "redirectEnabled" : true,
  "requestBody" : "<IMAUTO>\n<PolicyId>389</PolicyId>\n<Applicant>\n    <ApplicantType>Applicant</ApplicantType>\n    <PersonalInfo>\n        <Name>\n            <FirstName>Naveen</FirstName>\n            <LastName>Putta</LastName>\n        </Name>\n        <DOB>1989-03-07</DOB>\n        <Gender>Male</Gender>\n        <MaritalStatus>Married</MaritalStatus>\n        <Industry>Banking/Finance/Real Estate</Industry>\n        <Occupation>Consultant</Occupation>\n        <Education>Bachelors</Education>\n    </PersonalInfo>\n    <Address>\n        <AddressCode>StreetAddress</AddressCode>\n        <Addr1>\n            <StreetName>Columbus Blvd</StreetName>\n            <StreetNumber>10</StreetNumber>\n        </Addr1>\n        <City>HARTFORD</City>\n        <StateCode>CT</StateCode>\n        <County>HARTFORD</County>\n        <Zip5>06106</Zip5>\n        <Zip4></Zip4>\n        <Phone>\n            <PhoneType>Home</PhoneType>\n            <PhoneNumberType>Phone</PhoneNumberType>\n            <PhoneNumber>9807654897</PhoneNumber>\n        </Phone>\n        <Email>test@gmail.com</Email>\n        <Validation>Valid</Validation>\n    </Address>\n</Applicant>\n<PriorPolicyInfo>\n    <PriorCarrier>21st Century</PriorCarrier>\n    <Expiration>2019-03-09</Expiration>\n    <YearsWithPriorCarrier>\n        <Years>2</Years>\n        <Months>3</Months>\n    </YearsWithPriorCarrier>\n    <YearsWithContinuousCoverage>\n        <Years>3</Years>\n        <Months>2</Months>\n    </YearsWithContinuousCoverage>\n    <PriorLiabilityLimit>100/300</PriorLiabilityLimit>\n    <PriorPolicyPremium>10000</PriorPolicyPremium>\n    <PriorPolicyTerm>6 Month</PriorPolicyTerm>\n</PriorPolicyInfo>\n<PolicyInfo>\n    <PolicyTerm>12 Month</PolicyTerm>\n    <Package>No</Package>\n    <Effective>2019-03-07</Effective>\n    <CreditCheckAuth>Yes</CreditCheckAuth>\n</PolicyInfo>\n<ResidenceInfo>\n    <CurrentAddress>\n        <Ownership>Rental Home/Condo</Ownership>\n        <YearsAtCurrent>\n            <Years>1</Years>\n            <Months>0</Months>\n        </YearsAtCurrent>\n    </CurrentAddress>\n</ResidenceInfo>\n<Drivers>\n    <Driver id=\"1\">\n        <Name>\n            <FirstName>Naveen</FirstName>\n            <LastName>Kumar</LastName>\n        </Name>\n        <Gender>Male</Gender>\n        <DOB>1989-03-07</DOB>\n        <DLNumber></DLNumber>\n        <DateLicensed>2019-03-09</DateLicensed>\n        <DLStatus>Valid</DLStatus>\n        <AgeLicensed>20</AgeLicensed>\n        <MaritalStatus>Married</MaritalStatus>\n        <Relation>Insured</Relation>\n        <Industry>Insurance</Industry>\n        <Occupation>Commissioner</Occupation>\n        <GoodStudent>No</GoodStudent>\n        <Student100>No</Student100>\n        <DriverTraining>No</DriverTraining>\n        <MATDriver>No</MATDriver>\n        <PrincipalVehicle>1</PrincipalVehicle>\n        <Accident name=\"1\">\n            <Date>2019-02-26</Date>\n            <Description>At Fault With Injury</Description>\n            <PD>0</PD>\n            <BI>0</BI>\n            <VehicleInvolved>63</VehicleInvolved>\n        </Accident>\n        <SR22>No</SR22>\n        <LicenseRevokedSuspended>No</LicenseRevokedSuspended>\n    </Driver>\n</Drivers>\n<Vehicles>\n    <Vehicle id=\"1\">\n        <UseVinLookup>No</UseVinLookup>\n        <UseVehicleLookupService>No</UseVehicleLookupService>\n        <Year>2003</Year>\n        <Vin>5UXFA53513LW24323</Vin>\n        <Make>BMW</Make>\n        <Model>X5 3.0I AWD</Model>\n        <Sub-Model>UTIL</Sub-Model>\n        <AntiTheft>None</AntiTheft>\n        <PassiveRestraints>None</PassiveRestraints>\n        <AntiLockBrake>Yes</AntiLockBrake>\n    </Vehicle>\n</Vehicles>\n<VehiclesUse>\n    <VehicleUse id=\"1\">\n        <Useage>Business</Useage>\n        <OneWayMiles>0</OneWayMiles>\n        <DaysPerWeek>5</DaysPerWeek>\n        <WeeksPerMonth>4</WeeksPerMonth>\n        <AnnualMiles>1000</AnnualMiles>\n        <Ownership>Owned</Ownership>\n        <Carpool>No</Carpool>\n        <AlternateGarage>No</AlternateGarage>\n        <PrincipalOperator>1</PrincipalOperator>\n        <UsedForDelivery>No</UsedForDelivery>\n        <PriorDamagePresent>No</PriorDamagePresent>\n    </VehicleUse>\n</VehiclesUse>\n<Coverages>\n    <GeneralCoverage>\n        <BI>20/40</BI>\n        <PD>5000</PD>\n        <MP>500</MP>\n        <UM>12.5/25</UM>\n        <UIM>12.5/25</UIM>\n        <AAADiscount>No</AAADiscount>\n        <Multicar>No</Multicar>\n    </GeneralCoverage>\n    <VehicleCoverage id=\"1\">\n        <OtherCollisionDeductible>1000</OtherCollisionDeductible>\n        <CollisionDeductible>100</CollisionDeductible>\n        <FullGlass>Yes</FullGlass>\n        <TowingDeductible>40</TowingDeductible>\n        <RentalDeductible>25/750</RentalDeductible>\n        <LiabilityNotRequired>No</LiabilityNotRequired>\n        <LoanLeaseCoverage>Yes</LoanLeaseCoverage>\n        <ReplacementCost>No</ReplacementCost>\n    </VehicleCoverage>\n    <StateSpecificCoverage>\n        <CT-Coverages>\n            <CT-WageLoss>300</CT-WageLoss>\n            <CT-BRB>Basic + 5000</CT-BRB>\n        </CT-Coverages>\n    </StateSpecificCoverage>\n</Coverages>\n<VehicleAssignments>\n    <VehicleAssignment id=\"1\">\n        <DriverAssignment id=\"1\">100</DriverAssignment>\n    </VehicleAssignment>\n</VehicleAssignments>\n<GeneralInfo>\n    <RatingStateCode>CT</RatingStateCode>\n</GeneralInfo>\n<Carriers>\n    <CarrierExecution>\n        <PropertyValues>\n            <value Name=\"username\">alenaCT</value>\n            <value Name=\"password\">Kirill003</value>\n            <value Name=\"shopperdis\">Yes</value>\n            <value Name=\"anotherpersonalpolicy\">Yes</value>\n            <value Name=\"motorclubmembershipdiscount\">Yes</value>\n            <value Name=\"electronicdocdiscount\">Yes</value>\n            <value Name=\"insuredcurrentagent\">Yes, 3 or more years</value>\n            <value Name=\"commercialauto\">Yes</value>\n            <value Name=\"homecarrier\">ALLSTATE</value>\n            <value Name=\"empassoc\">N/A</value>\n            <value Name=\"yubidisc\"/>\n            <value Name=\"agencyCode\">5001411</value>\n            <value Name=\"applicant_effectivedate\">NA</value>\n            <value Name=\"householdmember\">No</value>\n            <value Name=\"ubidisc\">No</value>\n        </PropertyValues>\n        <CarrierID>131</CarrierID>\n                </CarrierExecution>\n    <CarrierExecution>\n        <PropertyValues>\n            <value Name=\"username\">003103</value>\n            <value Name=\"password\">password</value>\n            <value Name=\"accounttype\">HOME,Auto Policy</value>\n            <value Name=\"applicant_effectivedate\">NA</value>\n            <value Name=\"contractnumber\">NA</value>\n            <value Name=\"custpermid\">NA</value>\n            <value Name=\"custpermid1\">NA</value>\n            <value Name=\"producername\"></value>\n            <value Name=\"optpackage1\">A</value>\n            <value Name=\"uimprompt\">1</value>\n            <value Name=\"umprompt\">1</value>\n            <value Name=\"reasonexcluded\">NeverLicensed</value>\n            <value Name=\"newvehdate1\">NA</value>\n            <value Name=\"oemcoverage1\"></value>\n            <value Name=\"rewindprg\"></value>\n            <value Name=\"applicant_priorliabilitylimit\">State Minimum</value>\n            <value Name=\"accountnumber*ID\">NA</value>\n            <value Name=\"accounttype1\"/>\n            <value Name=\"accountnumber1\">NA</value>\n            <value Name=\"accounttype2\"/>\n            <value Name=\"accountnumber2\">NA</value>\n            <value Name=\"accounttype3\"/>\n            <value Name=\"accountnumber3\">NA</value>\n            <value Name=\"accounttype4\"/>\n            <value Name=\"accountnumber4\">NA</value>\n            <value Name=\"accounttype*ID\">HOME</value>\n            <value Name=\"Telematicsor1\">N</value>\n            <value Name=\"coverages_medicalpayments*NH\">None</value>\n            <value Name=\"agencyid\">003002</value>\n            <value Name=\"towing\">No</value>\n            <value Name=\"applicant_education\"/>\n            <value Name=\"accountnumber\">003002</value>\n            <value Name=\"umbrellapolicyno\">NA</value>\n            <value Name=\"Vehicle_v1vehinspection\">NA</value>\n        </PropertyValues>\n        <CarrierID>35</CarrierID>\n                </CarrierExecution>\n    <CarrierExecution>\n        <PropertyValues>\n            <value Name=\"username\">rtrqa</value>\n            <value Name=\"password\">rtr2010qa</value>\n            <value Name=\"leasedVehicle1\">N</value>\n            <value Name=\"originalowner1\">NO</value>\n            <value Name=\"Ownershiplength1\">0</value>\n            <value Name=\"producercode\">0690441</value>\n            <value Name=\"dynamite\">NO</value>\n            <value Name=\"explainmulti\">N</value>\n            <value Name=\"producercode\">0699999</value>\n            <value Name=\"effectivediscount\">No</value>\n        </PropertyValues>\n        <CarrierID>52</CarrierID>\n                </CarrierExecution>\n    <CarrierExecution>\n        <PropertyValues>\n            <value Name=\"username\">opx107583</value>\n            <value Name=\"password\">opx107583a@1</value>\n            <value Name=\"applicant_effectivedate\">NA</value>\n        </PropertyValues>\n        <CarrierID>404</CarrierID>\n                </CarrierExecution>\n    <CarrierExecution>\n        <PropertyValues>\n            <value Name=\"username\">1HH8101</value>\n            <value Name=\"password\">metlife1</value>\n            <value Name=\"coverages_v1towingdeductible\">No Coverage</value>\n            <value Name=\"creditoption\">Select</value>\n            <value Name=\"agentid\">1HH3211</value>\n            <value Name=\"testenvmetxml\">QA</value>\n        </PropertyValues>\n        <CarrierID>7</CarrierID>\n                </CarrierExecution>\n    <CarrierExecution>\n        <PropertyValues>\n            <value Name=\"username\">86588</value>\n            <value Name=\"password\">Ezl791</value>\n            <value Name=\"multipolicy\">No</value>\n            <value Name=\"IDmyrate1\">0</value>\n            <value Name=\"agentloginid\">86588</value>\n            <value Name=\"applicant_effectivedate\">NA</value>\n            <value Name=\"Drivereducation1*PA\"/>\n            <value Name=\"coverages_medicalpayments\">None</value>\n            <value Name=\"myrate1\">0</value>\n            <value Name=\"paperlessdisc\">AllDocuments</value>\n            <value Name=\"promptedlocationresidentgarage\">NA</value>\n            <value Name=\"reason*IL\">A</value>\n            <value Name=\"multipolicyoptions1\"/>\n            <value Name=\"multipolicyoptions2\"/>\n            <value Name=\"multipolicyoptions3\"/>\n            <value Name=\"numresidents*CT\"/>\n            <value Name=\"lengthofOwnership1*MO\"/>\n            <value Name=\"PriorTort\">FT</value>\n            <value Name=\"Vehicle2_v1useage\">To/From Work</value>\n            <value Name=\"unlistedDriver\">0</value>\n            <value Name=\"titleholder\">0</value>\n            <value Name=\"titleholderct\">0</value>\n            <value Name=\"producer_code\">86588</value>\n        </PropertyValues>\n        <CarrierID>25</CarrierID>\n                </CarrierExecution>\n                                                </Carriers>",
  "queryParams" : { },
  "authDetails" : {
    "type" : "BASIC"
  },
  "contentType" : "text/xml",
  "multiParamInfoList" : null,
  "sampleHttpResponseDetails" : {
    "statusCode" : 0,
    "headers" : { },
    "responseBody" : "",
    "convertedResponse" : null
  },
  "proxy" : null
}