{
  "UNIVERSAL_RATECountImAddresses" : {
    "_id" : "wm-UNIVERSAL_RATECountImAddresses-wm.ServiceVariable-1552646600597",
    "name" : "UNIVERSAL_RATECountImAddresses",
    "owner" : "Page",
    "category" : "wm.ServiceVariable",
    "dataBinding" : [ ],
    "type" : "integer",
    "service" : "UNIVERSAL_RATE",
    "operation" : "countImAddresses",
    "operationId" : "ImAddressController_countImAddresses",
    "operationType" : "get",
    "serviceType" : "DataService",
    "dataSet" : [ ],
    "isList" : false,
    "maxResults" : 20,
    "startUpdate" : false,
    "autoUpdate" : true,
    "inFlightBehavior" : "executeLast",
    "transformationRequired" : false,
    "saveInPhonegap" : false,
    "isDefault" : true,
    "controller" : "ImAddress"
  }
}